<svg width="16" height="16" xmlns="http://www.w3.org/2000/svg">
  <path fill-rule="evenodd" clip-rule="evenodd" d="M3 1a2 2 0 00-2 2v10a2 2 0 002 2h10a2 2 0 002-2V3a2 2 0 00-2-2H3zm1.102 4.297a1.195 1.195 0 100-2.39 1.195 1.195 0 000 2.39zm1 7.516V6.234h-2v6.579h2zM6.43 6.234h2v.881c.295-.462.943-1.084 2.148-1.084 1.438 0 2.219.953 2.219 2.766 0 .087.008.484.008.484v3.531h-2v-3.53c0-.485-.102-1.438-1.18-1.438-1.079 0-1.17 1.198-1.195 1.982v2.986h-2V6.234z" fill="#000"/>
</svg>
